<?xml version="1.0" encoding="utf-8"?>
<!-- Generator: Adobe Illustrator 18.1.1, SVG Export Plug-In . SVG Version: 6.00 Build 0)  -->
<svg version="1.1" id="Layer_1" xmlns="http://www.w3.org/2000/svg" xmlns:xlink="http://www.w3.org/1999/xlink" x="0px" y="0px"
	 viewBox="638 322 124 124" enable-background="new 638 322 124 124" xml:space="preserve">
<path d="M762,384c0-34.1-27.9-62-62-62s-62,27.9-62,62s27.9,62,62,62S762,418.1,762,384z M725,393h-50l25-25L725,393z"/>
</svg>
