<?xml version="1.0" encoding="utf-8"?>
<!-- Generator: Adobe Illustrator 18.1.1, SVG Export Plug-In . SVG Version: 6.00 Build 0)  -->
<svg version="1.1" id="Layer_1" xmlns="http://www.w3.org/2000/svg" xmlns:xlink="http://www.w3.org/1999/xlink" x="0px" y="0px"
	 viewBox="638 322 124 124" enable-background="new 638 322 124 124" xml:space="preserve">
<path d="M659,432c0,7.6,6.4,14,14,14h56c7.6,0,13-6.4,13-14v-83h-83V432z M749,329h-24l-7-7h-34l-7,7h-24v14h96V329z"/>
</svg>
